class MyClass1 {
        var name = ""
        var class2: MyClass2?
        
        init (name: String) {
            self.name = name
            print("Inicijalizacija klase sa imenom \(self.name)")
        }
        deinit {
            print("Realising class with name \(self.name)")
        }
    }
    
    class MyClass2 {
        var name = ""
        var class1: MyClass1?
        
        init(name: String) {
            self.name = name
            print("Inicijalizacija klase sa imenom \(self.name)")
        }
        deinit {
            print("Realising class2 with name \(self.name)")
        }
    }
    
    var class1: MyClass1? = MyClass1(name: "Class1")
    var class2: MyClass2? = MyClass2(name: "Class2")
    